A00001,N
A00002,N
A00003,N
A00004,A
A00005,A
A00006,N
A00007,N
A00008,O
A00009,A
A00010,N
A00011,N
A00012,O
A00013,O
A00014,N
A00015,O
A00016,N
A00017,O
A00018,N
A00019,N
A00020,O
A00021,N
A00022,~
A00023,O
A00024,N
A00025,N
A00026,N
A00027,A
A00028,N
A00029,O
A00030,O
A00031,N
A00032,N
A00033,N
A00034,N
A00035,N
A00036,N
A00037,N
A00038,O
A00039,N
A00040,N
A00041,O
A00042,N
A00043,O
A00044,N
A00045,N
A00046,N
A00047,N
A00048,N
A00049,N
A00050,N
A00051,N
A00052,N
A00053,N
A00054,A
A00055,O
A00056,~
A00057,N
A00058,O
A00059,N
A00060,N
A00061,O
A00062,N
A00063,N
A00064,N
A00065,O
A00066,O
A00067,A
A00068,N
A00069,O
A00070,O
A00071,A
A00072,N
A00073,N
A00074,O
A00075,O
A00076,N
A00077,O
A00078,O
A00079,N
A00080,N
A00081,N
A00082,O
A00083,O
A00084,N
A00085,N
A00086,N
A00087,A
A00088,O
A00089,N
A00090,A
A00091,N
A00092,O
A00093,N
A00094,O
A00095,N
A00096,O
A00097,N
A00098,N
A00099,N
A00100,A
A00101,A
A00102,A
A00103,O
A00104,N
A00105,N
A00106,N
A00107,A
A00108,O
A00109,N
A00110,O
A00111,N
A00112,N
A00113,N
A00114,O
A00115,O
A00116,N
A00117,N
A00118,N
A00119,O
A00120,N
A00121,O
A00122,N
A00123,O
A00124,N
A00125,~
A00126,O
A00127,N
A00128,A
A00129,N
A00130,N
A00131,N
A00132,A
A00133,O
A00134,N
A00135,N
A00136,O
A00137,A
A00138,O
A00139,~
A00140,N
A00141,N
A00142,N
A00143,N
A00144,N
A00145,O
A00146,N
A00147,N
A00148,N
A00149,N
A00150,N
A00151,N
A00152,N
A00153,N
A00154,N
A00155,A
A00156,A
A00157,N
A00158,N
A00159,O
A00160,N
A00161,O
A00162,O
A00163,N
A00164,~
A00165,N
A00166,N
A00167,N
A00168,N
A00169,N
A00170,O
A00171,N
A00172,N
A00173,N
A00174,N
A00175,N
A00176,O
A00177,N
A00178,N
A00179,N
A00180,N
A00181,O
A00182,O
A00183,N
A00184,N
A00185,N
A00186,O
A00187,O
A00188,N
A00189,O
A00190,N
A00191,N
A00192,O
A00193,N
A00194,N
A00195,N
A00196,~
A00197,N
A00198,O
A00199,N
A00200,N
A00201,~
A00202,N
A00203,O
A00204,O
A00205,~
A00206,N
A00207,N
A00208,A
A00209,O
A00210,N
A00211,O
A00212,O
A00213,N
A00214,N
A00215,O
A00216,A
A00217,A
A00218,O
A00219,N
A00220,N
A00221,N
A00222,N
A00223,N
A00224,N
A00225,A
A00226,N
A00227,O
A00228,N
A00229,O
A00230,N
A00231,A
A00232,O
A00233,N
A00234,N
A00235,N
A00236,N
A00237,O
A00238,N
A00239,N
A00240,N
A00241,N
A00242,N
A00244,N
A00245,N
A00247,A
A00248,N
A00249,N
A00253,A
A00267,A
A00271,A
A00301,A
A00321,A
A00375,A
A00395,A
A00397,A
A00405,A
A00422,A
A00432,A
A00438,A
A00439,A
A00441,A
A00456,A
A00465,A
A00473,A
A00486,A
A00509,A
A00519,A
A00520,A
A00524,~
A00542,A
A00551,A
A00585,~
A01006,~
A01070,~
A01246,~
A01299,~
A01521,~
A01567,~
A01707,~
A01727,~
A01772,~
A01833,~
A02168,~
A02372,~
A02772,~
A02785,~
A02833,~
A03549,~
A03738,~
A04086,~
A04137,~
A04170,~
A04186,~
A04216,~
A04282,~
A04452,~
A04522,~
A04701,~
A04735,~
A04805,~
