python-dev
libpython-dev
python-pip
python-numpy=1:1.12.0-2~pn0
python-scipy
python-pywt
python-dateutil
python-statsmodels
python-pandas
libwfdb10=10.5.25~pre2-0~pn1
wfdb=10.5.25~pre2-0~pn1
python-sklearn=0.18-5~pn0
python-sklearn-lib=0.18-5~pn0
python-joblib=0.10.3+git55-g660fe5d-1
python-keras=2.0.2+git20170403+64d24215-0~pn1
python-theano=0.9.0-0~pn1
python-tensorflow=1.0.0-0~pn1
python-protobuf=3.2.0-0~pn1
libprotobuf10=3.2.0-0~pn1
python-mock=2.0.0-3~bpo8+1
python-pbr=1.8.0-4.1~bpo8+1
python-funcsigs=1.0.2-3~bpo8+1
python-six=1.10.0-3
libatlas3-base
